SRC/20_temp_lm75_test/temp_lm75_test/.Xil/Vivado-11304-ALINX000008-PC/hw_ila_data_1/zip_work/waveform.vcd
$date
        2018-Mar-27 18:15:16
$end
$version
        Vivado v2017.4 (64-bit)
$end
$timescale
        1ps
$end
$scope module dut $end
$var reg 1 " I2C_READ/scl $end
$var reg 1 # I2C_READ/sda_r $end
$var reg 16 $ I2C_READ/data [15:0] $end
$var reg 1 4 I2C_READ/sda_link $end
$var reg 1 5 _TRIGGER $end
$var reg 1 6 _WINDOW $end
$var reg 1 7 _GAP $end
$upscope $end
$enddefinitions $end
#0
$dumpvars
1"
1#
b1100001000000 $
14
05
16
07
$end
#92
0"
#192
1"
#292
0"
#392
1"
#492
0"
#592
1"
#692
0"
#792
1"
#892
0"
#992
1"
#1092
0"
#1192
1"
#1292
0"
#1392
1"
#1492
0"
#1592
1"
#1692
0"
#1792
1"
#1892
0"
#1992
1"
#2092
0"
#2192
1"
#2292
0"
#2392
1"
#2492
0"
#2592
1"
#2692
0"
#2792
1"
#2892
0"
#2992
1"
#3092
0"
#3192
1"
#3292
0"
#3392
1"
#3492
0"
#3592
1"
#3692
0"
#3792
1"
#3892
0"
#3992
1"
#4092
0"
#4192
1"
#4292
0"
#4392
1"
#4492
0"
#4592
1"
#4692
0"
#4792
1"
#4892
0"
#4992
1"
#5092
0"
#5192
1"
#5292
0"
#5392
1"
#5492
0"
#5592
1"
#5692
0"
#5792
1"
#5892
0"
#5992
1"
#6092
0"
#6192
1"
#6292
0"
#6392
1"
#6492
0"
#6592
1"
#6692
0"
#6792
1"
#6892
0"
#6992
1"
#7092
0"
#7192
1"
#7292
0"
#7392
1"
#7492
0"
#7592
1"
#7692
0"
#7792
1"
#7892
0"
#7992
1"
#8092
0"
#8192
1"
15
#8292
0"
#8392
1"
#8492
0"
#8592
1"
#8692
0"
#8792
1"
#8892
0"
#8992
1"
#9092
0"
#9192
1"
#9292
0"
#9392
1"
#9492
0"
#9592
1"
#9692
0"
#9792
1"
#9892
0"
#9992
1"
#10092
0"
#10192
1"
#10292
0"
#10392
1"
#10492
0"
#10592
1"
#10692
0"
#10792
1"
#10892
0"
#10992
1"
#11092
0"
#11192
1"
#11292
0"
#11392
1"
#11492
0"
#11592
1"
#11692
0"
#11792
1"
#11892
0"
#11992
1"
#12092
0"
#12192
1"
#12292
0"
#12392
1"
#12492
0"
#12592
1"
#12692
0"
#12792
1"
#12892
0"
#12992
1"
#13092
0"
#13192
1"
#13292
0"
#13392
1"
#13492
0"
#13592
1"
#13692
0"
#13792
1"
#13892
0"
#13992
1"
#14092
0"
#14192
1"
#14292
0"
#14392
1"
#14492
0"
#14592
1"
#14692
0"
#14792
1"
#14892
0"
#14992
1"
#15092
0"
#15192
1"
#15292
0"
#15392
1"
#15492
0"
#15592
1"
#15692
0"
#15792
1"
#15892
0"
#15992
1"
#16092
0"
#16192
1"
#16292
0"
